^D:\ANDRIY\2 КУРС 1 СЕМЕСТР\АСД\SMARTIMAGES\SMARTIMAGES\DEBUG\PUZZLE.OBJ|D:\ANDRIY\2 КУРС 1 СЕМЕСТР\АСД\SMARTIMAGES\SMARTIMAGES\DEBUG\SMARTIMAGES.OBJ|D:\ANDRIY\2 КУРС 1 СЕМЕСТР\АСД\SMARTIMAGES\SMARTIMAGES\DEBUG\SMARTIMAGES.RES|D:\ANDRIY\2 КУРС 1 СЕМЕСТР\АСД\SMARTIMAGES\SMARTIMAGES\DEBUG\STDAFX.OBJ
/OUT:"D:\ANDRIY\2 КУРС 1 СЕМЕСТР\АСД\SMARTIMAGES\DEBUG\SMARTIMAGES.EXE" /INCREMENTAL /NOLOGO kernel32.lib user32.lib gdi32.lib winspool.lib comdlg32.lib advapi32.lib shell32.lib ole32.lib oleaut32.lib uuid.lib odbc32.lib odbccp32.lib /MANIFEST /MANIFESTUAC:"level='asInvoker' uiAccess='false'" /manifest:embed /DEBUG /PDB:"D:\ANDRIY\2 КУРС 1 СЕМЕСТР\АСД\SMARTIMAGES\DEBUG\SMARTIMAGES.PDB" /SUBSYSTEM:WINDOWS /TLBID:1 /DYNAMICBASE /NXCOMPAT /IMPLIB:"D:\ANDRIY\2 КУРС 1 СЕМЕСТР\АСД\SMARTIMAGES\DEBUG\SMARTIMAGES.LIB" /MACHINE:X86 DEBUG\SMARTIMAGES.RESDEBUG\PUZZLE.OBJDEBUG\SMARTIMAGES.OBJDEBUG\STDAFX.OBJ
^D:\ANDRIY\2 КУРС 1 СЕМЕСТР\АСД\SMARTIMAGES_BACKUP\SMARTIMAGES\DEBUG\PUZZLE.OBJ|D:\ANDRIY\2 КУРС 1 СЕМЕСТР\АСД\SMARTIMAGES_BACKUP\SMARTIMAGES\DEBUG\SMARTIMAGES.OBJ|D:\ANDRIY\2 КУРС 1 СЕМЕСТР\АСД\SMARTIMAGES_BACKUP\SMARTIMAGES\DEBUG\SMARTIMAGES.RES|D:\ANDRIY\2 КУРС 1 СЕМЕСТР\АСД\SMARTIMAGES_BACKUP\SMARTIMAGES\DEBUG\STDAFX.OBJ
/OUT:"D:\ANDRIY\2 КУРС 1 СЕМЕСТР\АСД\SMARTIMAGES_BACKUP\DEBUG\SMARTIMAGES.EXE" /INCREMENTAL /NOLOGO kernel32.lib user32.lib gdi32.lib winspool.lib comdlg32.lib advapi32.lib shell32.lib ole32.lib oleaut32.lib uuid.lib odbc32.lib odbccp32.lib /MANIFEST /MANIFESTUAC:"level='asInvoker' uiAccess='false'" /manifest:embed /DEBUG /PDB:"D:\ANDRIY\2 КУРС 1 СЕМЕСТР\АСД\SMARTIMAGES_BACKUP\DEBUG\SMARTIMAGES.PDB" /SUBSYSTEM:WINDOWS /TLBID:1 /DYNAMICBASE /NXCOMPAT /IMPLIB:"D:\ANDRIY\2 КУРС 1 СЕМЕСТР\АСД\SMARTIMAGES_BACKUP\DEBUG\SMARTIMAGES.LIB" /MACHINE:X86 DEBUG\SMARTIMAGES.RESDEBUG\PUZZLE.OBJDEBUG\SMARTIMAGES.OBJDEBUG\STDAFX.OBJ
^D:\ANDRIY\2 КУРС 1 СЕМЕСТР\АСД\KURSOVA\SMARTIMAGES\SMARTIMAGES\DEBUG\PUZZLE.OBJ|D:\ANDRIY\2 КУРС 1 СЕМЕСТР\АСД\KURSOVA\SMARTIMAGES\SMARTIMAGES\DEBUG\SMARTIMAGES.OBJ|D:\ANDRIY\2 КУРС 1 СЕМЕСТР\АСД\KURSOVA\SMARTIMAGES\SMARTIMAGES\DEBUG\SMARTIMAGES.RES|D:\ANDRIY\2 КУРС 1 СЕМЕСТР\АСД\KURSOVA\SMARTIMAGES\SMARTIMAGES\DEBUG\STDAFX.OBJ
/OUT:"D:\ANDRIY\2 КУРС 1 СЕМЕСТР\АСД\KURSOVA\SMARTIMAGES\DEBUG\SMARTIMAGES.EXE" /INCREMENTAL /NOLOGO kernel32.lib user32.lib gdi32.lib winspool.lib comdlg32.lib advapi32.lib shell32.lib ole32.lib oleaut32.lib uuid.lib odbc32.lib odbccp32.lib /MANIFEST /MANIFESTUAC:"level='asInvoker' uiAccess='false'" /manifest:embed /DEBUG /PDB:"D:\ANDRIY\2 КУРС 1 СЕМЕСТР\АСД\KURSOVA\SMARTIMAGES\DEBUG\SMARTIMAGES.PDB" /SUBSYSTEM:WINDOWS /TLBID:1 /DYNAMICBASE /NXCOMPAT /IMPLIB:"D:\ANDRIY\2 КУРС 1 СЕМЕСТР\АСД\KURSOVA\SMARTIMAGES\DEBUG\SMARTIMAGES.LIB" /MACHINE:X86 DEBUG\SMARTIMAGES.RESDEBUG\PUZZLE.OBJDEBUG\SMARTIMAGES.OBJDEBUG\STDAFX.OBJ
^D:\ANDRIY\2 КУРС 1-2 СЕМЕСТР\ЯАРХІВ\АСД\KURSOVA\SMARTIMAGES\SMARTIMAGES\DEBUG\PUZZLE.OBJ|D:\ANDRIY\2 КУРС 1-2 СЕМЕСТР\ЯАРХІВ\АСД\KURSOVA\SMARTIMAGES\SMARTIMAGES\DEBUG\SMARTIMAGES.OBJ|D:\ANDRIY\2 КУРС 1-2 СЕМЕСТР\ЯАРХІВ\АСД\KURSOVA\SMARTIMAGES\SMARTIMAGES\DEBUG\SMARTIMAGES.RES|D:\ANDRIY\2 КУРС 1-2 СЕМЕСТР\ЯАРХІВ\АСД\KURSOVA\SMARTIMAGES\SMARTIMAGES\DEBUG\STDAFX.OBJ
/OUT:"D:\ANDRIY\2 КУРС 1-2 СЕМЕСТР\ЯАРХІВ\АСД\KURSOVA\SMARTIMAGES\DEBUG\SMARTIMAGES.EXE" /INCREMENTAL /NOLOGO kernel32.lib user32.lib gdi32.lib winspool.lib comdlg32.lib advapi32.lib shell32.lib ole32.lib oleaut32.lib uuid.lib odbc32.lib odbccp32.lib /MANIFEST /MANIFESTUAC:"level='asInvoker' uiAccess='false'" /manifest:embed /DEBUG /PDB:"D:\ANDRIY\2 КУРС 1-2 СЕМЕСТР\ЯАРХІВ\АСД\KURSOVA\SMARTIMAGES\DEBUG\SMARTIMAGES.PDB" /SUBSYSTEM:WINDOWS /TLBID:1 /DYNAMICBASE /NXCOMPAT /IMPLIB:"D:\ANDRIY\2 КУРС 1-2 СЕМЕСТР\ЯАРХІВ\АСД\KURSOVA\SMARTIMAGES\DEBUG\SMARTIMAGES.LIB" /MACHINE:X86 DEBUG\SMARTIMAGES.RESDEBUG\PUZZLE.OBJDEBUG\SMARTIMAGES.OBJDEBUG\STDAFX.OBJ
